{
  "name": "Study",
  "code": "k_study",
  "group": "Kanji",
  "data": [
    {
      "kanji": "私",
      "meaning": [
        {
          "en": "I",
          "reading": [
            {
              "kana": "わたし",
              "type": "kunyomi"
            }
          ]
        }
      ]
    },
    {
      "kanji": "人",
      "meaning": [
        {
          "en": "Man",
          "reading": [
            {
              "kana": "にん",
              "type": "onyomi"
            },
            {
              "kana": "じん",
              "type": "kunyomi"
            },
            {
              "kana": "ひと",
              "type": "kunyomi"
            }
          ]
        }
      ]
    },
    {
      "kanji": "才",
      "meaning": [
        {
          "en": "Age",
          "reading": [
            {
              "kana": "さい",
              "type": "kunyomi"
            }
          ]
        }
      ]
    },
    {
      "kanji": "学",
      "meaning": [
        {
          "en": "To study",
          "reading": [
            {
              "kana": "がく",
              "type": "kunyomi"
            }
          ]
        }
      ]
    },
    {
      "kanji": "生",
      "meaning": [
        {
          "en": "Life",
          "reading": [
            {
              "kana": "せい",
              "type": "kunyomi"
            }
          ]
        }
      ]
    },
    {
      "kanji": "日",
      "meaning": [
        {
          "en": "Day",
          "reading": [
            {
              "kana": "に",
              "type": "onyomi"
            },
            {
              "kana": "にち",
              "type": "onyomi"
            },
            {
              "kana": "ひ",
              "type": "kunyomi"
            }
          ]
        }
      ]
    },
    {
      "kanji": "本",
      "meaning": [
        {
          "en": "Book",
          "reading": [
            {
              "kana": "ほん",
              "type": "kunyomi"
            }
          ]
        }
      ]
    },
    {
      "kanji": "語",
      "meaning": [
        {
          "en": "Language",
          "reading": [
            {
              "kana": "ご",
              "type": "onyomi"
            }
          ]
        }
      ]
    },
    {
      "kanji": "日本語",
      "meaning": [
        {
          "en": "Japanese language",
          "reading": [
            {
              "kana": "にほんご",
              "type": "mixed"
            }
          ]
        }
      ]
    }
  ]
}