{
  "name": "Calendar",
  "code": "k_calendar",
  "group": "Kanji",
  "data": [
    {
      "jp": "月曜日",
      "onyomi": {
        "native": "",
        "transliteration": ""
      },
      "kunyomi": {
        "native": "げつようび",
        "transliteration": "getsuyoubi"
      },
      "en": "Monday"
    },
    {
      "jp": "火曜日",
      "onyomi": {
        "native": "",
        "transliteration": ""
      },
      "kunyomi": {
        "native": "かようび",
        "transliteration": "kayoubi"
      },
      "en": "Tuesday"
    },
    {
      "jp": "水曜日",
      "onyomi": {
        "native": "",
        "transliteration": ""
      },
      "kunyomi": {
        "native": "すいようび",
        "transliteration": "suiyoubi"
      },
      "en": "Wednesday"
    },
    {
      "jp": "木曜日",
      "onyomi": {
        "native": "",
        "transliteration": ""
      },
      "kunyomi": {
        "native": "もくようび",
        "transliteration": "mokuyoubi"
      },
      "en": "Thursday"
    },
    {
      "jp": "金曜日",
      "onyomi": {
        "native": "",
        "transliteration": ""
      },
      "kunyomi": {
        "native": "きんようび",
        "transliteration": "kinyoubi"
      },
      "en": "Friday"
    },
    {
      "jp": "土曜日",
      "onyomi": {
        "native": "",
        "transliteration": ""
      },
      "kunyomi": {
        "native": "どようび",
        "transliteration": "doyoubi"
      },
      "en": "Saturday" 
    },
    {
      "jp": "日曜日",
      "onyomi": {
        "native": "",
        "transliteration": ""
      },
      "kunyomi": {
        "native": "にちようび",
        "transliteration": "nichiyoubi"
      },
      "en": "Sunday"
    },
    {
      "jp": "週末",
      "onyomi": {
        "native": "",
        "transliteration": ""
      },
      "kunyomi": {
        "native": "しゅうまつ",
        "transliteration": "shuumatsu"
      },
      "en": "Weekend"
    },
    {
      "jp": "一月",
      "onyomi": {
        "native": "イチガツ",
        "transliteration": "ichi-gatsu"
      },
      "kunyomi": {
        "native": "",
        "transliteration": ""
      },
      "en": "January"
    },
    {
      "jp": "二月",
      "onyomi": {
        "native": "ニガツ",
        "transliteration": "ni-gatsu"
      },
      "kunyomi": {
        "native": "",
        "transliteration": ""
      },
      "en": "February"
    },
    {
      "jp": "三月",
      "onyomi": {
        "native": "サンガツ",
        "transliteration": "san-gatsu"
      },
      "kunyomi": {
        "native": "",
        "transliteration": ""
      },
      "en": "March"
    },
    {
      "jp": "四月",
      "onyomi": {
        "native": "シガツ",
        "transliteration": "shi-gatsu"
      },
      "kunyomi": {
        "native": "",
        "transliteration": ""
      },
      "en": "April"
    },
    {
      "jp": "五月",
      "onyomi": {
        "native": "ゴガツ",
        "transliteration": "go-gatsu"
      },
      "kunyomi": {
        "native": "",
        "transliteration": ""
      },
      "en": "May"
    },
    {
      "jp": "六月",
      "onyomi": {
        "native": "ロクガツ",
        "transliteration": "roku-gatsu"
      },
      "kunyomi": {
        "native": "",
        "transliteration": ""
      },
      "en": "June"
    },
    {
      "jp": "七月",
      "onyomi": {
        "native": "シチガツ",
        "transliteration": "shichi-gatsu"
      },
      "kunyomi": {
        "native": "",
        "transliteration": ""
      },
      "en": "July"
    },
    {
      "jp": "八月",
      "onyomi": {
        "native": "ハチガツ",
        "transliteration": "hachi-gatsu"
      },
      "kunyomi": {
        "native": "",
        "transliteration": ""
      },
      "en": "August"
    },
    {
      "jp": "九月",
      "onyomi": {
        "native": "クガツ",
        "transliteration": "ku-gatsu"
      },
      "kunyomi": {
        "native": "",
        "transliteration": ""
      },
      "en": "September"
    },
    {
      "jp": "十月",
      "onyomi": {
        "native": "ジュウガツ",
        "transliteration": "juu-gatsu"
      },
      "kunyomi": {
        "native": "",
        "transliteration": ""
      },
      "en": "October"
    },
    {
      "jp": "十一月",
      "onyomi": {
        "native": "ジュウイチガツ",
        "transliteration": "juu-ichi-gatsu"
      },
      "kunyomi": {
        "native": "",
        "transliteration": ""
      },
      "en": "November"
    },
    {
      "jp": "十二月",
      "onyomi": {
        "native": "ジュウニガツ",
        "transliteration": "juu-ni-gatsu"
      },
      "kunyomi": {
        "native": "",
        "transliteration": ""
      },
      "en": "December"
    },
    {
      "jp": "一日",
      "onyomi": {
        "native": "",
        "transliteration": ""
      },
      "kunyomi": {
        "native": "ついたち",
        "transliteration": "tsuitachi"
      },
      "en": "1 day of month"
    },
    {
      "jp": "二日",
      "onyomi": {
        "native": "",
        "transliteration": ""
      },
      "kunyomi": {
        "native": "ふつか",
        "transliteration": "futs(u)ka"
      },
      "en": "2 day of month"
    }
    ,
    {
      "jp": "三日",
      "onyomi": {
        "native": "",
        "transliteration": ""
      },
      "kunyomi": {
        "native": "みっか",
        "transliteration": "mikka"
      },
      "en": "3 day of month"
    },
    {
      "jp": "四日",
      "onyomi": {
        "native": "",
        "transliteration": ""
      },
      "kunyomi": {
        "native": "よっか",
        "transliteration": "yokka"
      },
      "en": "4 day of month"
    }
    ,
    {
      "jp": "五日",
      "onyomi": {
        "native": "",
        "transliteration": ""
      },
      "kunyomi": {
        "native": "いつか",
        "transliteration": "its(u)ka"
      },
      "en": "5 day of month"
    },
    {
      "jp": "六日",
      "onyomi": {
        "native": "",
        "transliteration": ""
      },
      "kunyomi": {
        "native": "むいか",
        "transliteration": "muika"
      },
      "en": "6 day of month"
    }
    ,
    {
      "jp": "七日",
      "onyomi": {
        "native": "",
        "transliteration": ""
      },
      "kunyomi": {
        "native": "なのか",
        "transliteration": "nanoka"
      },
      "en": "7 day of month"
    },
    {
      "jp": "八日",
      "onyomi": {
        "native": "",
        "transliteration": ""
      },
      "kunyomi": {
        "native": "ようか",
        "transliteration": "youka"
      },
      "en": "8 day of month"
    }
    ,
    {
      "jp": "九日",
      "onyomi": {
        "native": "",
        "transliteration": ""
      },
      "kunyomi": {
        "native": "ここのか",
        "transliteration": "kokonoka"
      },
      "en": "9 day of month"
    },
    {
      "jp": "十日",
      "onyomi": {
        "native": "",
        "transliteration": ""
      },
      "kunyomi": {
        "native": "とおか",
        "transliteration": "tooka"
      },
      "en": "10 day of month"
    }
    ,
    {
      "jp": "十一日",
      "onyomi": {
        "native": "",
        "transliteration": ""
      },
      "kunyomi": {
        "native": "じゅういちにち",
        "transliteration": "juu ichi nichi"
      },
      "en": "11 day of month"
    },
    {
      "jp": "十二日",
      "onyomi": {
        "native": "",
        "transliteration": ""
      },
      "kunyomi": {
        "native": "じゅうににち",
        "transliteration": "juu ni nichi"
      },
      "en": "12 day of month"
    }
    ,
    {
      "jp": "十三日",
      "onyomi": {
        "native": "",
        "transliteration": ""
      },
      "kunyomi": {
        "native": "じゅうさんにち",
        "transliteration": "juu san nichi"
      },
      "en": "13 day of month"
    },
    {
      "jp": "十四日",
      "onyomi": {
        "native": "",
        "transliteration": ""
      },
      "kunyomi": {
        "native": "じゅうよっか",
        "transliteration": "juu yokka"
      },
      "en": "14 day of month"
    }
    ,
    {
      "jp": "十五日",
      "onyomi": {
        "native": "",
        "transliteration": ""
      },
      "kunyomi": {
        "native": "じゅうごにち",
        "transliteration": "juu go nichi"
      },
      "en": "15 day of month"
    },
    {
      "jp": "十六日",
      "onyomi": {
        "native": "",
        "transliteration": ""
      },
      "kunyomi": {
        "native": "じゅうろくにち",
        "transliteration": "juu roku nichi"
      },
      "en": "16 day of month"
    }
    ,
    {
      "jp": "十七日",
      "onyomi": {
        "native": "",
        "transliteration": ""
      },
      "kunyomi": {
        "native": "じゅうしちにち　じゅうななにち",
        "transliteration": "juu shichi nichi, juu nana nichi"
      },
      "en": "17 day of month"
    },
    {
      "jp": "十八日",
      "onyomi": {
        "native": "",
        "transliteration": ""
      },
      "kunyomi": {
        "native": "じゅうはちにち",
        "transliteration": "juu hachi nichi"
      },
      "en": "18 day of month"
    }
    ,
    {
      "jp": "十九日",
      "onyomi": {
        "native": "",
        "transliteration": ""
      },
      "kunyomi": {
        "native": "じゅうくにち",
        "transliteration": "juu ku nichi"
      },
      "en": "19 day of month"
    },
    {
      "jp": "二十日",
      "onyomi": {
        "native": "",
        "transliteration": ""
      },
      "kunyomi": {
        "native": "はつか",
        "transliteration": "hats(u)ka"
      },
      "en": "20 day of month"
    }
    ,
    {
      "jp": "二十一日",
      "onyomi": {
        "native": "",
        "transliteration": ""
      },
      "kunyomi": {
        "native": "にじゅういちにち",
        "transliteration": "ni juu ichi nichi"
      },
      "en": "21 day of month"
    },
    {
      "jp": "二十二日",
      "onyomi": {
        "native": "",
        "transliteration": ""
      },
      "kunyomi": {
        "native": "にじゅうににち",
        "transliteration": "ni juu ni nichi"
      },
      "en": "22 day of month"
    }
    ,
    {
      "jp": "二十三日",
      "onyomi": {
        "native": "",
        "transliteration": ""
      },
      "kunyomi": {
        "native": "にじゅうさんいち",
        "transliteration": "ni juu san nichi"
      },
      "en": "23 day of month"
    },
    {
      "jp": "二十四日",
      "onyomi": {
        "native": "",
        "transliteration": ""
      },
      "kunyomi": {
        "native": "にじゅうよっか",
        "transliteration": "ni juu yokka"
      },
      "en": "24 day of month"
    }
    ,
    {
      "jp": "二十五日",
      "onyomi": {
        "native": "",
        "transliteration": ""
      },
      "kunyomi": {
        "native": "にじゅうごにち",
        "transliteration": "ni juu go nichi"
      },
      "en": "25 day of month"
    },
    {
      "jp": "二十六日",
      "onyomi": {
        "native": "",
        "transliteration": ""
      },
      "kunyomi": {
        "native": "にじゅうろくにち",
        "transliteration": "ni juu roku nichi"
      },
      "en": "26 day of month"
    }
    ,
    {
      "jp": "二十七日",
      "onyomi": {
        "native": "",
        "transliteration": ""
      },
      "kunyomi": {
        "native": "にじゅうしちにち　にじゅうななにち",
        "transliteration": "ni juu shichi nichi, ni juu nana nichi"
      },
      "en": "27 day of month"
    },
    {
      "jp": "二十八日",
      "onyomi": {
        "native": "",
        "transliteration": ""
      },
      "kunyomi": {
        "native": "にじゅうはちにち",
        "transliteration": "ni juu hachi nichi"
      },
      "en": "28 day of month"
    }
    ,
    {
      "jp": "二十九日",
      "onyomi": {
        "native": "",
        "transliteration": ""
      },
      "kunyomi": {
        "native": "にじゅうくにち",
        "transliteration": "ni juu ku nichi"
      },
      "en": "29 day of month"
    },
    {
      "jp": "三十日",
      "onyomi": {
        "native": "",
        "transliteration": ""
      },
      "kunyomi": {
        "native": "さんじゅうにち",
        "transliteration": "san juu nichi"
      },
      "en": "30 day of month"
    }
    ,
    {
      "jp": "三十一日",
      "onyomi": {
        "native": "",
        "transliteration": ""
      },
      "kunyomi": {
        "native": "さんじゅういちにち",
        "transliteration": "san juu ichi nichi"
      },
      "en": "31 day of month"
    },
    {
      "jp": "晦日",
      "onyomi": {
        "native": "",
        "transliteration": ""
      },
      "kunyomi": {
        "native": "みそか",
        "transliteration": "misoka"
      },
      "en": "Last day of month"
    }
    ,
    {
      "jp": "大晦日",
      "onyomi": {
        "native": "",
        "transliteration": ""
      },
      "kunyomi": {
        "native": "おうみそか",
        "transliteration": "oumisoka"
      },
      "en": "New Year's Eve"
    },
    {
      "jp": "明治時代",
      "onyomi": {
        "native": "",
        "transliteration": ""
      },
      "kunyomi": {
        "native": "めいじじだい",
        "transliteration": "meiji jidai"
      },
      "en": "Meiji era"
    }
    ,
    {
      "jp": "大正時代",
      "onyomi": {
        "native": "",
        "transliteration": ""
      },
      "kunyomi": {
        "native": "たいしょうじだい",
        "transliteration": "taishou jidai"
      },
      "en": "Taishou era"
    },
    {
      "jp": "昭和時代",
      "onyomi": {
        "native": "",
        "transliteration": ""
      },
      "kunyomi": {
        "native": "しょうわじだい",
        "transliteration": "shouwa jidai"
      },
      "en": "Shouwa era"
    }
    ,
    {
      "jp": "平成",
      "onyomi": {
        "native": "",
        "transliteration": ""
      },
      "kunyomi": {
        "native": "へいせい",
        "transliteration": "heisei"
      },
      "en": "Heisei era"
    },
    {
      "jp": "季",
      "onyomi": {
        "native": "",
        "transliteration": ""
      },
      "kunyomi": {
        "native": "き",
        "transliteration": "ki"
      },
      "en": "Season"
    }
    ,
    {
      "jp": "冬",
      "onyomi": {
        "native": "",
        "transliteration": ""
      },
      "kunyomi": {
        "native": "ふゆ",
        "transliteration": "fuyu"
      },
      "en": "Winter"
    },
    {
      "jp": "春",
      "onyomi": {
        "native": "",
        "transliteration": ""
      },
      "kunyomi": {
        "native": "はる",
        "transliteration": "haru"
      },
      "en": "Spring"
    }
    ,
    {
      "jp": "夏",
      "onyomi": {
        "native": "",
        "transliteration": ""
      },
      "kunyomi": {
        "native": "なつ",
        "transliteration": "natsu"
      },
      "en": "Summer"
    },
    {
      "jp": "秋",
      "onyomi": {
        "native": "",
        "transliteration": ""
      },
      "kunyomi": {
        "native": "あき",
        "transliteration": "aki"
      },
      "en": "Autumn"
    }
    ,
    {
      "jp": "日",
      "onyomi": {
        "native": "",
        "transliteration": ""
      },
      "kunyomi": {
        "native": "ひ",
        "transliteration": "hi"
      },
      "en": "Day"
    },
    {
      "jp": "月",
      "onyomi": {
        "native": "",
        "transliteration": ""
      },
      "kunyomi": {
        "native": "がつ",
        "transliteration": "gatsu"
      },
      "en": "Month"
    }
    ,
    {
      "jp": "年",
      "onyomi": {
        "native": "",
        "transliteration": ""
      },
      "kunyomi": {
        "native": "とし",
        "transliteration": "toshi"
      },
      "en": "Year"
    },
    {
      "jp": "曜",
      "onyomi": {
        "native": "",
        "transliteration": ""
      },
      "kunyomi": {
        "native": "ようび",
        "transliteration": "youbi"
      },
      "en": "Day of week"
    }
    ,
    {
      "jp": "时",
      "onyomi": {
        "native": "",
        "transliteration": ""
      },
      "kunyomi": {
        "native": "とき",
        "transliteration": "toki"
      },
      "en": "Time"
    },
    {
      "jp": "今",
      "onyomi": {
        "native": "",
        "transliteration": ""
      },
      "kunyomi": {
        "native": "いま",
        "transliteration": "ima"
      },
      "en": "Now"
    }
    ,
    {
      "jp": "早い",
      "onyomi": {
        "native": "",
        "transliteration": ""
      },
      "kunyomi": {
        "native": "はやい",
        "transliteration": "hayai"
      },
      "en": "Early"
    },
    {
      "jp": "遅い",
      "onyomi": {
        "native": "",
        "transliteration": ""
      },
      "kunyomi": {
        "native": "おそい",
        "transliteration": "osoi"
      },
      "en": "Late"
    }
    ,
    {
      "jp": "久",
      "onyomi": {
        "native": "",
        "transliteration": ""
      },
      "kunyomi": {
        "native": "ひさ",
        "transliteration": "hisa"
      },
      "en": "A long time ago"
    },
    {
      "jp": "期",
      "onyomi": {
        "native": "",
        "transliteration": ""
      },
      "kunyomi": {
        "native": "き",
        "transliteration": "ki"
      },
      "en": "Period of time"
    }
    ,
    {
      "jp": "昨",
      "onyomi": {
        "native": "",
        "transliteration": ""
      },
      "kunyomi": {
        "native": "しゃく",
        "transliteration": "shaku"
      },
      "en": "Past"
    }
    ,
    {
      "jp": "昔",
      "onyomi": {
        "native": "",
        "transliteration": ""
      },
      "kunyomi": {
        "native": "むかし",
        "transliteration": "mukashi"
      },
      "en": "A very long time ago"
    }
  ]
}