{
  "name": "Katakana",
  "code": "k",
  "group": "ABC",
  "data": [
    {
      "jp": "ア",
      "en": "a"
    },
    {
      "jp": "カ",
      "en": "ka"
    },
    {
      "jp": "サ",
      "en": "sa"
    },
    {
      "jp": "タ",
      "en": "ta"
    },
    {
      "jp": "ナ",
      "en": "na"
    },
    {
      "jp": "ハ",
      "en": "ha"
    },
    {
      "jp": "マ",
      "en": "ma"
    },
    {
      "jp": "ヤ",
      "en": "ya"
    },
    {
      "jp": "ラ",
      "en": "ra"
    },
    {
      "jp": "ワ",
      "en": "wa"
    },
    {
      "jp": "ン",
      "en": "n"
    },
    {
      "jp": "イ",
      "en": "i"
    },
    {
      "jp": "キ",
      "en": "ki"
    },
    {
      "jp": "シ",
      "en": "shi"
    },
    {
      "jp": "チ",
      "en": "chi"
    },
    {
      "jp": "ニ",
      "en": "ni"
    },
    {
      "jp": "ヒ",
      "en": "hi"
    },
    {
      "jp": "ミ",
      "en": "mi"
    },
    {
      "jp": "リ",
      "en": "ri"
    },
    {
      "jp": "ウ",
      "en": "u"
    },
    {
      "jp": "ク",
      "en": "ku"
    },
    {
      "jp": "ス",
      "en": "su"
    },
    {
      "jp": "ツ",
      "en": "tsu"
    },
    {
      "jp": "ヌ",
      "en": "nu"
    },
    {
      "jp": "フ",
      "en": "fu"
    },
    {
      "jp": "ム",
      "en": "mu"
    },
    {
      "jp": "ユ",
      "en": "yu"
    },
    {
      "jp": "ル",
      "en": "ru"
    },
    {
      "jp": "エ",
      "en": "e"
    },
    {
      "jp": "ケ",
      "en": "ke"
    },
    {
      "jp": "セ",
      "en": "se"
    },
    {
      "jp": "テ",
      "en": "te"
    },
    {
      "jp": "ネ",
      "en": "ne"
    },
    {
      "jp": "ヘ",
      "en": "he"
    },
    {
      "jp": "メ",
      "en": "me"
    },
    {
      "jp": "レ",
      "en": "re"
    },
    {
      "jp": "オ",
      "en": "o"
    },
    {
      "jp": "コ",
      "en": "ko"
    },
    {
      "jp": "ソ",
      "en": "so"
    },
    {
      "jp": "ト",
      "en": "to"
    },
    {
      "jp": "ノ",
      "en": "no"
    },
    {
      "jp": "ホ",
      "en": "ho"
    },
    {
      "jp": "モ",
      "en": "mo"
    },
    {
      "jp": "ヨ",
      "en": "yo"
    },
    {
      "jp": "ロ",
      "en": "ro"
    },
    {
      "jp": "ヲ",
      "en": "wo"
    }
  ]
}